%YAML 1.1
%TAG !u! tag:unity3d.com,2011:
--- !u!114 &1768514989
MonoBehaviour:
  m_ObjectHideFlags: 0
  m_CorrespondingSourceObject: {fileID: 0}
  m_PrefabInstance: {fileID: 0}
  m_PrefabAsset: {fileID: 0}
  m_GameObject: {fileID: 767888479012709119}
  m_Enabled: 1
  m_EditorHideFlags: 0
  m_Script: {fileID: 11500000, guid: cffc61f941b39411abb01552696f2e36, type: 3}
  m_Name: 
  m_EditorClassIdentifier: 
  speed: 5
  minimumX: -2.75
  maximumX: -0.9
  boatPosition: left
--- !u!1001 &8395668741842475215
PrefabInstance:
  m_ObjectHideFlags: 0
  serializedVersion: 2
  m_Modification:
    m_TransformParent: {fileID: 0}
    m_Modifications:
    - target: {fileID: 1768514991, guid: 1621b120ebda44a5e86efb7d23c4fb00, type: 3}
      propertyPath: viewIdField
      value: 0
      objectReference: {fileID: 0}
    - target: {fileID: 9091499626279074352, guid: 1621b120ebda44a5e86efb7d23c4fb00,
        type: 3}
      propertyPath: m_Name
      value: leftBoat Variant
      objectReference: {fileID: 0}
    - target: {fileID: 9091499626279074354, guid: 1621b120ebda44a5e86efb7d23c4fb00,
        type: 3}
      propertyPath: m_LocalPosition.x
      value: -2.75
      objectReference: {fileID: 0}
    - target: {fileID: 9091499626279074354, guid: 1621b120ebda44a5e86efb7d23c4fb00,
        type: 3}
      propertyPath: m_LocalPosition.y
      value: -4.87
      objectReference: {fileID: 0}
    - target: {fileID: 9091499626279074354, guid: 1621b120ebda44a5e86efb7d23c4fb00,
        type: 3}
      propertyPath: m_LocalPosition.z
      value: 0
      objectReference: {fileID: 0}
    - target: {fileID: 9091499626279074354, guid: 1621b120ebda44a5e86efb7d23c4fb00,
        type: 3}
      propertyPath: m_LocalRotation.x
      value: 0
      objectReference: {fileID: 0}
    - target: {fileID: 9091499626279074354, guid: 1621b120ebda44a5e86efb7d23c4fb00,
        type: 3}
      propertyPath: m_LocalRotation.y
      value: 0
      objectReference: {fileID: 0}
    - target: {fileID: 9091499626279074354, guid: 1621b120ebda44a5e86efb7d23c4fb00,
        type: 3}
      propertyPath: m_LocalRotation.z
      value: 0
      objectReference: {fileID: 0}
    - target: {fileID: 9091499626279074354, guid: 1621b120ebda44a5e86efb7d23c4fb00,
        type: 3}
      propertyPath: m_LocalRotation.w
      value: 1
      objectReference: {fileID: 0}
    - target: {fileID: 9091499626279074354, guid: 1621b120ebda44a5e86efb7d23c4fb00,
        type: 3}
      propertyPath: m_RootOrder
      value: 0
      objectReference: {fileID: 0}
    - target: {fileID: 9091499626279074354, guid: 1621b120ebda44a5e86efb7d23c4fb00,
        type: 3}
      propertyPath: m_LocalEulerAnglesHint.x
      value: 0
      objectReference: {fileID: 0}
    - target: {fileID: 9091499626279074354, guid: 1621b120ebda44a5e86efb7d23c4fb00,
        type: 3}
      propertyPath: m_LocalEulerAnglesHint.y
      value: 0
      objectReference: {fileID: 0}
    - target: {fileID: 9091499626279074354, guid: 1621b120ebda44a5e86efb7d23c4fb00,
        type: 3}
      propertyPath: m_LocalEulerAnglesHint.z
      value: 0
      objectReference: {fileID: 0}
    m_RemovedComponents:
    - {fileID: 1768514990, guid: 1621b120ebda44a5e86efb7d23c4fb00, type: 3}
  m_SourcePrefab: {fileID: 100100000, guid: 1621b120ebda44a5e86efb7d23c4fb00, type: 3}
--- !u!1 &767888479012709119 stripped
GameObject:
  m_CorrespondingSourceObject: {fileID: 9091499626279074352, guid: 1621b120ebda44a5e86efb7d23c4fb00,
    type: 3}
  m_PrefabInstance: {fileID: 8395668741842475215}
  m_PrefabAsset: {fileID: 0}
