%YAML 1.1
%TAG !u! tag:unity3d.com,2011:
--- !u!1045 &1
EditorBuildSettings:
  m_ObjectHideFlags: 0
  serializedVersion: 2
  m_Scenes:
  - enabled: 1
    path: Assets/Scenes/1PScene.unity
    guid: 2cda990e2423bbf4892e6590ba056729
  - enabled: 1
    path: Assets/Scenes/GameEndScene.unity
    guid: 2d10194172ff94d91b82765207f44647
  - enabled: 1
    path: Assets/Scenes/MenuScene.unity
    guid: ecca4999839d34a338921296986d330b
  - enabled: 1
    path: Assets/Scenes/MultiPlayerMenuScene.unity
    guid: 5ce8e8c37d8694cfabe767d2012ffb9a
  - enabled: 1
    path: Assets/Scenes/MultiPlayerGameScene.unity
    guid: 51c744a9c09a8476398811c3eba7d290
  m_configObjects: {}
